Merging different biologging data sources
…
[1] "Adélie Penguin"
[1] "Emperor Penguin"
[1] "Chinstrap Penguin"

dplyr::filter()

dplyr::filter() allows to filter rows of a data frame based on one or several statements. For instance we can filter depth data to only keep to ones belonging to Huey and with maximum depth deeper than 50 m.

my_depth %>% 
  filter(id == "huey" & max_depth > 20)

# A tibble: 220 × 4
   id    dive_start          dive_end            max_depth
   <chr> <dttm>              <dttm>                  <dbl>
 1 huey  2017-03-09 00:11:32 2017-03-09 00:14:16      20.2
 2 huey  2017-03-09 00:16:00 2017-03-09 00:21:48      20.7
 3 huey  2017-03-09 00:22:52 2017-03-09 00:24:04      20.7
 4 huey  2017-03-09 00:25:28 2017-03-09 00:27:32      20.8
 5 huey  2017-03-09 00:29:28 2017-03-09 00:34:48      20.9
 6 huey  2017-03-09 00:35:56 2017-03-09 00:39:20      20.8
 7 huey  2017-03-09 00:41:16 2017-03-09 00:46:04      20.3
 8 huey  2017-03-09 00:47:08 2017-03-09 00:50:20      20.1
 9 huey  2017-03-09 00:51:08 2017-03-09 00:56:04      20.6
10 huey  2017-03-09 00:57:12 2017-03-09 01:00:24      21  
# ℹ 210 more rows
…
